<?xml version="1.0" encoding="UTF-8" standalone="no"?>
<!-- Created with Inkscape (http://www.inkscape.org/) -->

<svg
   width="51.35775"
   height="48.844124"
   viewBox="0 0 13.588405 12.923341"
   version="1.1"
   id="svg5"
   inkscape:version="1.1.1 (3bf5ae0d25, 2021-09-20)"
   sodipodi:docname="star_left.svg"
   xmlns:inkscape="http://www.inkscape.org/namespaces/inkscape"
   xmlns:sodipodi="http://sodipodi.sourceforge.net/DTD/sodipodi-0.dtd"
   xmlns:xlink="http://www.w3.org/1999/xlink"
   xmlns="http://www.w3.org/2000/svg"
   xmlns:svg="http://www.w3.org/2000/svg">
  <sodipodi:namedview
     id="namedview7"
     pagecolor="#505050"
     bordercolor="#eeeeee"
     borderopacity="1"
     inkscape:pageshadow="0"
     inkscape:pageopacity="0"
     inkscape:pagecheckerboard="0"
     inkscape:document-units="mm"
     showgrid="false"
     units="px"
     fit-margin-top="0"
     fit-margin-left="0"
     fit-margin-right="0"
     fit-margin-bottom="0"
     showguides="false"
     inkscape:guide-bbox="true"
     inkscape:zoom="13.658439"
     inkscape:cx="26.540369"
     inkscape:cy="22.952843"
     inkscape:window-width="1848"
     inkscape:window-height="1016"
     inkscape:window-x="72"
     inkscape:window-y="27"
     inkscape:window-maximized="1"
     inkscape:current-layer="layer1">
    <sodipodi:guide
       position="6.7942026,11.719718"
       orientation="1,0"
       id="guide1687" />
  </sodipodi:namedview>
  <defs
     id="defs2">
    <linearGradient
       inkscape:collect="always"
       id="linearGradient1136">
      <stop
         style="stop-color:#58d3ff;stop-opacity:1"
         offset="0"
         id="stop1132" />
      <stop
         style="stop-color:#58d3ff;stop-opacity:1"
         offset="1"
         id="stop1362" />
      <stop
         style="stop-color:#000000;stop-opacity:0"
         offset="1"
         id="stop1134" />
    </linearGradient>
    <linearGradient
       inkscape:collect="always"
       xlink:href="#linearGradient1136"
       id="linearGradient4453"
       gradientUnits="userSpaceOnUse"
       x1="-1.870911"
       y1="26.98388"
       x2="23.807961"
       y2="26.983879" />
  </defs>
  <g
     inkscape:label="Layer 1"
     inkscape:groupmode="layer"
     id="layer1"
     transform="translate(0.60546567,0.24183844)">
    <path
       sodipodi:type="star"
       style="fill:url(#linearGradient4453);fill-rule:evenodd;stroke:#ffffff;stroke-width:4.28976;stroke-linecap:round;stroke-linejoin:miter;stroke-miterlimit:4;stroke-dasharray:none;stroke-opacity:1;fill-opacity:1"
       id="path880"
       inkscape:flatsided="false"
       sodipodi:sides="5"
       sodipodi:cx="23.807961"
       sodipodi:cy="24.405575"
       sodipodi:r1="22.451241"
       sodipodi:r2="11.76445"
       sodipodi:arg1="1.5707963"
       sodipodi:arg2="2.1991149"
       inkscape:rounded="0"
       inkscape:randomized="0"
       d="M 23.807961,46.856815 16.89299,33.923215 2.4555621,31.34339 12.619304,20.770159 10.611452,6.24214 23.807961,12.641125 37.004468,6.2421393 34.996618,20.77016 45.160359,31.343389 30.72293,33.923215 Z"
       transform="matrix(0.26458333,0,0,-0.26458333,-0.11045279,13.359317)"
       inkscape:transform-center-y="-0.56724039" />
  </g>
</svg>
